./3.1.2 mandel.png 1920 1080 2040 -0.01947381057309366392260585598705802112818 -0.0194738105725413418456426484226540196687 0.7985057569338268601555341774655971676111 0.798505756934379196110285192844457924366

./3.1.2 mandel2.png 1920 1080 1020 0.4127655418209589255340574709407519549131 0.4127655418245818053080142817634623497725 0.2135387051768746491386963270997512154281 0.2135387051804975289126531379224616102874
